\relax 
\providecommand\hyper@newdestlabel[2]{}
\providecommand{\transparent@use}[1]{}
\providecommand\HyperFirstAtBeginDocument{\AtBeginDocument}
\HyperFirstAtBeginDocument{\ifx\hyper@anchor\@undefined
\global\let\oldcontentsline\contentsline
\gdef\contentsline#1#2#3#4{\oldcontentsline{#1}{#2}{#3}}
\global\let\oldnewlabel\newlabel
\gdef\newlabel#1#2{\newlabelxx{#1}#2}
\gdef\newlabelxx#1#2#3#4#5#6{\oldnewlabel{#1}{{#2}{#3}}}
\AtEndDocument{\ifx\hyper@anchor\@undefined
\let\contentsline\oldcontentsline
\let\newlabel\oldnewlabel
\fi}
\fi}
\global\let\hyper@last\relax 
\gdef\HyperFirstAtBeginDocument#1{#1}
\providecommand\HyField@AuxAddToFields[1]{}
\providecommand\HyField@AuxAddToCoFields[2]{}
\citation{Sigmund2001b,Raulli2005,Alwan2006,Yoon2008,Qian2013}
\citation{GIL2007,Vicente2015}
\citation{DavidK,Nathanson1967,Rochus2006a}
\select@language{english}
\@writefile{toc}{\select@language{english}}
\@writefile{lof}{\select@language{english}}
\@writefile{lot}{\select@language{english}}
\@writefile{toc}{\contentsline {section}{\numberline {1}Introduction}{1}{section.1}}
\citation{GIL2007}
\citation{Yoon2008}
\@writefile{toc}{\contentsline {section}{\numberline {2}Notation}{2}{section.2}}
\newlabel{sec:notation}{{2}{2}{Notation}{section.2}{}}
\providecommand*\caption@xref[2]{\@setref\relax\@undefined{#1}}
\newlabel{fig:notation}{{1a}{2}{\relax }{figure.caption.1}{}}
\newlabel{sub@fig:notation}{{a}{2}{\relax }{figure.caption.1}{}}
\newlabel{fig:notationDef}{{1b}{2}{\relax }{figure.caption.1}{}}
\newlabel{sub@fig:notationDef}{{b}{2}{\relax }{figure.caption.1}{}}
\newlabel{fig:notationSymb}{{1c}{2}{\relax }{figure.caption.1}{}}
\newlabel{sub@fig:notationSymb}{{c}{2}{\relax }{figure.caption.1}{}}
\@writefile{lof}{\contentsline {figure}{\numberline {1}{\ignorespaces Notation used throughout the paper. Definitions of boundaries and domains (a) Undeformed configuration. (b) Deformed configuration. (c) Index notation.\relax }}{2}{figure.caption.1}}
\newlabel{fig:notationAll}{{1}{2}{Notation used throughout the paper. Definitions of boundaries and domains (a) Undeformed configuration. (b) Deformed configuration. (c) Index notation.\relax }{figure.caption.1}{}}
\citation{Yoon2008}
\citation{Yoon2008}
\citation{Yoon2008}
\citation{Yoon2008}
\@writefile{toc}{\contentsline {section}{\numberline {3}Monolithic formulations}{3}{section.3}}
\newlabel{sec:goveq}{{3}{3}{Monolithic formulations}{section.3}{}}
\@writefile{lof}{\contentsline {figure}{\numberline {2}{\ignorespaces Schematic presentation of the optimization process using monolithic equations.\relax }}{3}{figure.caption.2}}
\newlabel{fig:monolithic}{{2}{3}{Schematic presentation of the optimization process using monolithic equations.\relax }{figure.caption.2}{}}
\@writefile{toc}{\contentsline {subsection}{\numberline {3.1}Electrostatic equation}{3}{subsection.3.1}}
\newlabel{eq:SymmtryE}{{2}{3}{Electrostatic equation}{equation.3.2}{}}
\@writefile{toc}{\contentsline {subsection}{\numberline {3.2}Electromechanical coupling}{3}{subsection.3.2}}
\citation{GIL2007}
\newlabel{eq:LinEla}{{4}{4}{Electromechanical coupling}{equation.3.4}{}}
\@writefile{toc}{\contentsline {subsection}{\numberline {3.3}Mixed $\boldsymbol  {\mathbf  {u}}/p$ formulation}{4}{subsection.3.3}}
\newlabel{eq:strongu/G}{{5}{4}{Mixed $\bs {u}/p$ formulation}{equation.3.5}{}}
\newlabel{eq:strongp/k}{{6}{4}{Mixed $\bs {u}/p$ formulation}{equation.3.6}{}}
\@writefile{lof}{\contentsline {figure}{\numberline {3}{\ignorespaces Boundary conditions for Helmholtz equations compared to the mixed formulation\relax }}{4}{figure.caption.3}}
\newlabel{fig:acouBC}{{3}{4}{Boundary conditions for Helmholtz equations compared to the mixed formulation\relax }{figure.caption.3}{}}
\@writefile{toc}{\contentsline {subsection}{\numberline {3.4}Weak forms}{4}{subsection.3.4}}
\newlabel{eq:weakE}{{12}{4}{Weak forms}{equation.3.12}{}}
\newlabel{eq:weakU}{{13}{4}{Weak forms}{equation.3.13}{}}
\newlabel{eq:weakP}{{14}{4}{Weak forms}{equation.3.14}{}}
\newlabel{eq:weak1}{{18}{5}{Weak forms}{equation.3.18}{}}
\newlabel{eq:weak2}{{19}{5}{Weak forms}{equation.3.19}{}}
\newlabel{eq:weak3}{{20}{5}{Weak forms}{equation.3.20}{}}
\@writefile{toc}{\contentsline {subsection}{\numberline {3.5}Discrete FE model}{5}{subsection.3.5}}
\newlabel{eq:elementMatrices}{{22}{5}{Discrete FE model}{equation.3.22}{}}
\newlabel{eq:sksk}{{24}{5}{Discrete FE model}{equation.3.24}{}}
\newlabel{eq:Residual}{{25}{5}{Discrete FE model}{equation.3.25}{}}
\newlabel{eq:tangentStiffnes}{{26}{5}{Discrete FE model}{equation.3.26}{}}
\newlabel{eq:R1}{{29}{5}{Discrete FE model}{equation.3.29}{}}
\citation{Wang1997,Zienko}
\citation{Yoon2008,Qian2013}
\@writefile{toc}{\contentsline {section}{\numberline {4}Implementation}{6}{section.4}}
\newlabel{sec:implement}{{4}{6}{Implementation}{section.4}{}}
\@writefile{lof}{\contentsline {figure}{\numberline {4}{\ignorespaces 2D quadratic Q9/C4 element used for the analysis\relax }}{6}{figure.caption.4}}
\newlabel{fig:ElementQ9C4}{{4}{6}{2D quadratic Q9/C4 element used for the analysis\relax }{figure.caption.4}{}}
\@writefile{toc}{\contentsline {subsection}{\numberline {4.1}Mapping to the undeformed configuration}{6}{subsection.4.1}}
\@writefile{lof}{\contentsline {figure}{\numberline {5}{\ignorespaces Linear and quadratic mapping from deformed configuration to reference configuration. Gradient and area information should be lost using the linear mapping, but lower order mapping exhibits stable behavior and produces adequate results.\relax }}{6}{figure.caption.5}}
\newlabel{fig:linMap}{{5}{6}{Linear and quadratic mapping from deformed configuration to reference configuration. Gradient and area information should be lost using the linear mapping, but lower order mapping exhibits stable behavior and produces adequate results.\relax }{figure.caption.5}{}}
\@writefile{toc}{\contentsline {subsection}{\numberline {4.2}Penalization of void forces}{6}{subsection.4.2}}
\citation{Nathanson1967}
\citation{JonJ}
\@writefile{toc}{\contentsline {subsection}{\numberline {4.3}Numerical Example}{7}{subsection.4.3}}
\newlabel{sect:Bench1D}{{4.3}{7}{Numerical Example}{subsection.4.3}{}}
\newlabel{eq:1Dequil}{{31}{7}{Numerical Example}{equation.4.31}{}}
\newlabel{fig:1D_problem}{{6a}{7}{\relax }{figure.caption.6}{}}
\newlabel{sub@fig:1D_problem}{{a}{7}{\relax }{figure.caption.6}{}}
\newlabel{fig:1Dfem}{{6b}{7}{\relax }{figure.caption.6}{}}
\newlabel{sub@fig:1Dfem}{{b}{7}{\relax }{figure.caption.6}{}}
\@writefile{lof}{\contentsline {figure}{\numberline {6}{\ignorespaces A parallel plate capacitor. (a) A 1D model ($k = 100,\tmspace  +\thinmuskip {.1667em} m = 1,\tmspace  +\thinmuskip {.1667em} d_0 = 1, \varepsilon _a = 1$) and (b) 2D FE interpretation $(E_s = 100,\tmspace  +\thinmuskip {.1667em} K_a = 10^{-10},\tmspace  +\thinmuskip {.1667em} \nu = 0, \tmspace  +\thinmuskip {.1667em} \rho _{equiv} = \rho _s/400\tmspace  +\thinmuskip {.1667em} E_s \pi ^2, \tmspace  +\thinmuskip {.1667em} \rho _a = 10^{-10}, \tmspace  +\thinmuskip {.1667em} \mathaccentV {tilde}07E{\varepsilon }_s = \varepsilon _a \times 10^5, \tmspace  +\thinmuskip {.1667em} \varepsilon _s = \varepsilon _a \times 10$)\relax }}{7}{figure.caption.6}}
\citation{Bendsoe2004,GIL2007}
\citation{Stolpe2001}
\citation{Sigmund2007a}
\newlabel{fig:MonolitVeri1D}{{7a}{8}{\relax }{figure.caption.7}{}}
\newlabel{sub@fig:MonolitVeri1D}{{a}{8}{\relax }{figure.caption.7}{}}
\newlabel{fig:MonolitForceVeri1}{{7b}{8}{\relax }{figure.caption.7}{}}
\newlabel{sub@fig:MonolitForceVeri1}{{b}{8}{\relax }{figure.caption.7}{}}
\@writefile{lof}{\contentsline {figure}{\numberline {7}{\ignorespaces  FE solutions compared to analytical solution. (a) Normalized voltage-displacement relation (b) Response curves compared with analytical solutions, obtained by linear vibration analysis around a static equilibrium.\relax }}{8}{figure.caption.7}}
\newlabel{fig:1Dthing}{{7}{8}{FE solutions compared to analytical solution. (a) Normalized voltage-displacement relation (b) Response curves compared with analytical solutions, obtained by linear vibration analysis around a static equilibrium.\relax }{figure.caption.7}{}}
\@writefile{toc}{\contentsline {section}{\numberline {5}Topology optimization}{8}{section.5}}
\newlabel{sec:topopt}{{5}{8}{Topology optimization}{section.5}{}}
\newlabel{eq:topoptProb}{{34}{8}{Topology optimization}{equation.5.34}{}}
\@writefile{toc}{\contentsline {subsection}{\numberline {5.1}Interpolation functions}{8}{subsection.5.1}}
\citation{Sigmund2001b}
\@writefile{lot}{\contentsline {table}{\numberline {1}{\ignorespaces Material properties used for solid/conductor and acoustic/dielectric phases during optimization.\relax }}{9}{table.caption.8}}
\newlabel{tab:inttab}{{1}{9}{Material properties used for solid/conductor and acoustic/dielectric phases during optimization.\relax }{table.caption.8}{}}
\@writefile{toc}{\contentsline {subsection}{\numberline {5.2}Sensitivity analysis}{9}{subsection.5.2}}
\@writefile{toc}{\contentsline {subsection}{\numberline {5.3}Implementation}{9}{subsection.5.3}}
\@writefile{toc}{\contentsline {section}{\numberline {6}Numerical results}{9}{section.6}}
\newlabel{sec:results}{{6}{9}{Numerical results}{section.6}{}}
\@writefile{toc}{\contentsline {subsection}{\numberline {6.1}Fixed electrode design for minimizing sound pressure}{9}{subsection.6.1}}
\newlabel{eq:topoptDomainAcou_string}{{45}{10}{Fixed electrode design for minimizing sound pressure}{equation.6.45}{}}
\@writefile{lof}{\contentsline {figure}{\numberline {8}{\ignorespaces A slender clamp-clamp beam inside an acoustic cavity. The clamped supports of the beam are harmonically excited with an amplitude $a$. A potential difference $\phi ^*$ is applied between the design domain and the beam. Volume constraint is 20\%. Plane stress conditions, with $E = 10^6$, $K_a = 0.6 $, $\nu = 0.17$, $\rho _s = 1$, $\rho _a = 1$, $\varepsilon _a = \varepsilon _0$, $\varepsilon _s = \varepsilon _0 \times 10$\relax }}{10}{figure.caption.9}}
\newlabel{fig:GILstringAcouOpen}{{8}{10}{A slender clamp-clamp beam inside an acoustic cavity. The clamped supports of the beam are harmonically excited with an amplitude $a$. A potential difference $\phi ^*$ is applied between the design domain and the beam. Volume constraint is 20\%. Plane stress conditions, with $E = 10^6$, $K_a = 0.6 $, $\nu = 0.17$, $\rho _s = 1$, $\rho _a = 1$, $\varepsilon _a = \varepsilon _0$, $\varepsilon _s = \varepsilon _0 \times 10$\relax }{figure.caption.9}{}}
\newlabel{fig:initial}{{\caption@xref {fig:initial}{ on input line 42}}{11}{Fixed electrode design for minimizing sound pressure}{figure.caption.10}{}}
\newlabel{sub@fig:initial}{{}{11}{Fixed electrode design for minimizing sound pressure}{figure.caption.10}{}}
\newlabel{fig:pot_initial}{{\caption@xref {fig:pot_initial}{ on input line 48}}{11}{Fixed electrode design for minimizing sound pressure}{figure.caption.10}{}}
\newlabel{sub@fig:pot_initial}{{}{11}{Fixed electrode design for minimizing sound pressure}{figure.caption.10}{}}
\newlabel{fig:R1sens}{{\caption@xref {fig:R1sens}{ on input line 58}}{11}{Fixed electrode design for minimizing sound pressure}{figure.caption.10}{}}
\newlabel{sub@fig:R1sens}{{a}{11}{Fixed electrode design for minimizing sound pressure}{figure.caption.10}{}}
\newlabel{fig:pot_R1}{{\caption@xref {fig:pot_R1}{ on input line 64}}{11}{Fixed electrode design for minimizing sound pressure}{figure.caption.10}{}}
\newlabel{sub@fig:pot_R1}{{a}{11}{Fixed electrode design for minimizing sound pressure}{figure.caption.10}{}}
\newlabel{fig:R2sens}{{\caption@xref {fig:R2sens}{ on input line 74}}{11}{Fixed electrode design for minimizing sound pressure}{figure.caption.10}{}}
\newlabel{sub@fig:R2sens}{{b}{11}{Fixed electrode design for minimizing sound pressure}{figure.caption.10}{}}
\newlabel{fig:pot_R2}{{\caption@xref {fig:pot_R2}{ on input line 80}}{11}{Fixed electrode design for minimizing sound pressure}{figure.caption.10}{}}
\newlabel{sub@fig:pot_R2}{{b}{11}{Fixed electrode design for minimizing sound pressure}{figure.caption.10}{}}
\newlabel{fig:R1dens}{{\caption@xref {fig:R1dens}{ on input line 90}}{11}{Fixed electrode design for minimizing sound pressure}{figure.caption.10}{}}
\newlabel{sub@fig:R1dens}{{c}{11}{Fixed electrode design for minimizing sound pressure}{figure.caption.10}{}}
\newlabel{fig:pot_R1dens}{{\caption@xref {fig:pot_R1dens}{ on input line 96}}{11}{Fixed electrode design for minimizing sound pressure}{figure.caption.10}{}}
\newlabel{sub@fig:pot_R1dens}{{c}{11}{Fixed electrode design for minimizing sound pressure}{figure.caption.10}{}}
\newlabel{fig:R2dens}{{\caption@xref {fig:R2dens}{ on input line 106}}{11}{Fixed electrode design for minimizing sound pressure}{figure.caption.10}{}}
\newlabel{sub@fig:R2dens}{{d}{11}{Fixed electrode design for minimizing sound pressure}{figure.caption.10}{}}
\newlabel{fig:pot_R2dens}{{\caption@xref {fig:pot_R2dens}{ on input line 112}}{11}{Fixed electrode design for minimizing sound pressure}{figure.caption.10}{}}
\newlabel{sub@fig:pot_R2dens}{{d}{11}{Fixed electrode design for minimizing sound pressure}{figure.caption.10}{}}
\@writefile{lof}{\contentsline {figure}{\numberline {9}{\ignorespaces Optimized toplogies obtained with vayring filter type and radius. Left column: Sound pressure level (displacements amplitudes scaled 1000:1). Right column: Electric potential (displacements scaled 10:1)\relax }}{11}{figure.caption.10}}
\newlabel{fig:opt_slenderbeam}{{9}{11}{Optimized toplogies obtained with vayring filter type and radius. Left column: Sound pressure level (displacements amplitudes scaled 1000:1). Right column: Electric potential (displacements scaled 10:1)\relax }{figure.caption.10}{}}
\bibstyle{spbasic}
\bibdata{library.bib}
\bibcite{Alwan2006}{{1}{2006}{{Alwan and Ananthasuresh}}{{}}}
\bibcite{Bendsoe2004}{{2}{2004}{{Bends{\o }e and Sigmund}}{{}}}
\bibcite{DavidK}{{3}{2014}{{Cheng}}{{}}}
\bibcite{Nathanson1967}{{4}{1967}{{Nathanson et~al}}{{Nathanson, Newell, Wickstrom, and Davis}}}
\@writefile{toc}{\contentsline {subsection}{\numberline {6.2}Transducer design}{12}{subsection.6.2}}
\@writefile{lof}{\contentsline {figure}{\numberline {10}{\ignorespaces Cantilever beam inside an acoustic cavity with a prescribed input pressure. A potential difference $\phi ^*$ is applied between the lower boundary and the beam. Volume constraint is 30\%. Plane stress conditions, with $E = 200\times 10^9$, $K_a = 1.42 \times 10^5 $, $\nu = 0.33$, $\rho _s = 7000$, $\rho _a = 1.293$, $\varepsilon _a = \varepsilon _0$, $\varepsilon _s = \varepsilon _0 \times 10$. Volume constraint is 30\%\relax }}{12}{figure.caption.11}}
\newlabel{fig:GILbeam}{{10}{12}{Cantilever beam inside an acoustic cavity with a prescribed input pressure. A potential difference $\phi ^*$ is applied between the lower boundary and the beam. Volume constraint is 30\%. Plane stress conditions, with $E = 200\times 10^9$, $K_a = 1.42 \times 10^5 $, $\nu = 0.33$, $\rho _s = 7000$, $\rho _a = 1.293$, $\varepsilon _a = \varepsilon _0$, $\varepsilon _s = \varepsilon _0 \times 10$. Volume constraint is 30\%\relax }{figure.caption.11}{}}
\newlabel{eq:topoptDomainAcou_string}{{46}{12}{Transducer design}{equation.6.46}{}}
\@writefile{toc}{\contentsline {section}{\numberline {7}Conclusions}{12}{section.7}}
\newlabel{sec:conclusions}{{7}{12}{Conclusions}{section.7}{}}
\@writefile{toc}{\contentsline {section}{References}{12}{section*.12}}
\bibcite{Qian2013}{{5}{2013}{{Qian and Sigmund}}{{}}}
\bibcite{Raulli2005}{{6}{2005}{{Raulli and Maute}}{{}}}
\bibcite{Rochus2006a}{{7}{2006}{{Rochus}}{{}}}
\bibcite{Sigmund2001b}{{8}{2001}{{Sigmund}}{{}}}
\bibcite{Sigmund2007a}{{9}{2007}{{Sigmund}}{{}}}
\bibcite{Stolpe2001}{{10}{2001}{{Stolpe and Svanberg}}{{}}}
\bibcite{JonJ}{{11}{2003}{{Thomsen}}{{}}}
\bibcite{Vicente2015}{{12}{2015}{{Vicente et~al}}{{Vicente, Picelli, Pavanello, and Xie}}}
\bibcite{Wang1997}{{13}{1997}{{Wang and Bathe}}{{}}}
\bibcite{Yoon2008}{{14}{2008}{{Yoon and Sigmund}}{{}}}
\bibcite{GIL2007}{{15}{2007}{{Yoon et~al}}{{Yoon, Jensen, and Sigmund}}}
\bibcite{Zienko}{{16}{2013}{{Zienkiewicz et~al}}{{Zienkiewicz, Taylor, and Zhu}}}
