<?xml version="1.0" encoding="UTF-8" standalone="no"?>
<!-- Created with Inkscape (http://www.inkscape.org/) -->

<svg
   xmlns:dc="http://purl.org/dc/elements/1.1/"
   xmlns:cc="http://creativecommons.org/ns#"
   xmlns:rdf="http://www.w3.org/1999/02/22-rdf-syntax-ns#"
   xmlns:svg="http://www.w3.org/2000/svg"
   xmlns="http://www.w3.org/2000/svg"
   xmlns:xlink="http://www.w3.org/1999/xlink"
   xmlns:sodipodi="http://sodipodi.sourceforge.net/DTD/sodipodi-0.dtd"
   xmlns:inkscape="http://www.inkscape.org/namespaces/inkscape"
   width="210mm"
   height="297mm"
   viewBox="0 0 744.09448819 1052.3622047"
   id="svg2"
   version="1.1"
   inkscape:version="0.91 r13725"
   sodipodi:docname="1D_problem.svg">
  <defs
     id="defs4">
    <marker
       inkscape:stockid="TriangleOutL"
       orient="auto"
       refY="0.0"
       refX="0.0"
       id="marker6561"
       style="overflow:visible"
       inkscape:isstock="true">
      <path
         id="path6563"
         d="M 5.77,0.0 L -2.88,5.0 L -2.88,-5.0 L 5.77,0.0 z "
         style="fill-rule:evenodd;stroke:#000000;stroke-width:1pt;stroke-opacity:1;fill:#000000;fill-opacity:1"
         transform="scale(0.8)" />
    </marker>
    <marker
       inkscape:isstock="true"
       style="overflow:visible"
       id="marker6378"
       refX="0.0"
       refY="0.0"
       orient="auto"
       inkscape:stockid="TriangleOutL"
       inkscape:collect="always">
      <path
         transform="scale(0.8)"
         style="fill-rule:evenodd;stroke:#000000;stroke-width:1pt;stroke-opacity:1;fill:#000000;fill-opacity:1"
         d="M 5.77,0.0 L -2.88,5.0 L -2.88,-5.0 L 5.77,0.0 z "
         id="path6380" />
    </marker>
    <marker
       inkscape:stockid="TriangleInL"
       orient="auto"
       refY="0.0"
       refX="0.0"
       id="TriangleInL"
       style="overflow:visible"
       inkscape:isstock="true">
      <path
         id="path6058"
         d="M 5.77,0.0 L -2.88,5.0 L -2.88,-5.0 L 5.77,0.0 z "
         style="fill-rule:evenodd;stroke:#000000;stroke-width:1pt;stroke-opacity:1;fill:#000000;fill-opacity:1"
         transform="scale(-0.8)" />
    </marker>
    <marker
       inkscape:stockid="TriangleOutL"
       orient="auto"
       refY="0.0"
       refX="0.0"
       id="TriangleOutL"
       style="overflow:visible"
       inkscape:isstock="true"
       inkscape:collect="always">
      <path
         id="path6067"
         d="M 5.77,0.0 L -2.88,5.0 L -2.88,-5.0 L 5.77,0.0 z "
         style="fill-rule:evenodd;stroke:#000000;stroke-width:1pt;stroke-opacity:1;fill:#000000;fill-opacity:1"
         transform="scale(0.8)" />
    </marker>
    <marker
       inkscape:stockid="Arrow2Lstart"
       orient="auto"
       refY="0.0"
       refX="0.0"
       id="Arrow2Lstart"
       style="overflow:visible"
       inkscape:isstock="true">
      <path
         id="path5943"
         style="fill-rule:evenodd;stroke-width:0.625;stroke-linejoin:round;stroke:#000000;stroke-opacity:1;fill:#000000;fill-opacity:1"
         d="M 8.7185878,4.0337352 L -2.2072895,0.016013256 L 8.7185884,-4.0017078 C 6.9730900,-1.6296469 6.9831476,1.6157441 8.7185878,4.0337352 z "
         transform="scale(1.1) translate(1,0)" />
    </marker>
    <pattern
       inkscape:collect="always"
       xlink:href="#pattern5907"
       id="pattern5911"
       patternTransform="matrix(0.12455425,0,0,-0.12737754,-273.57579,48.622511)" />
    <pattern
       inkscape:collect="always"
       xlink:href="#pattern5884"
       id="pattern5907"
       patternTransform="matrix(0.12455425,0,0,-0.12737754,-274.58594,357.72919)" />
    <pattern
       inkscape:collect="always"
       xlink:href="#pattern5879"
       id="pattern5884"
       patternTransform="matrix(0.12412247,0,0,-0.12738867,-272.74151,46.869931)" />
    <pattern
       inkscape:collect="always"
       xlink:href="#pattern5811"
       id="pattern5816"
       patternTransform="matrix(2.2917046,0,0,1.5609301,-11.428574,-37.142859)" />
    <pattern
       inkscape:collect="always"
       xlink:href="#pattern5802"
       id="pattern5809"
       patternTransform="matrix(-0.3822787,-0.17336986,-4.312791,9.5096583,156.65318,18.70214)" />
    <pattern
       inkscape:collect="always"
       xlink:href="#pattern5582"
       id="pattern5594"
       patternTransform="matrix(0.3245053,0,0,2.1847246,5.5273438e-6,-2.8027344e-6)" />
    <pattern
       inkscape:collect="always"
       xlink:href="#pattern5582"
       id="pattern5587"
       patternTransform="matrix(0.3120859,0,0,1,5.5273438e-6,-4.7314453e-6)" />
    <pattern
       patternUnits="userSpaceOnUse"
       width="182.08512"
       height="49.453559"
       patternTransform="translate(-369.84466,-144.14153)"
       id="pattern5582">
      <path
         inkscape:connector-curvature="0"
         id="path5580"
         d="M 181.95629,0.48311747 0.12883133,48.970441"
         style="fill:none;fill-rule:evenodd;stroke:#000000;stroke-width:1px;stroke-linecap:butt;stroke-linejoin:miter;stroke-opacity:1" />
    </pattern>
    <pattern
       patternUnits="userSpaceOnUse"
       width="56.826199"
       height="49.45356"
       patternTransform="translate(-369.84467,-144.14153)"
       id="pattern5589">
      <rect
         id="rect5585"
         y="0"
         x="0"
         height="49.45356"
         width="56.826199"
         style="fill:url(#pattern5587);stroke:none" />
    </pattern>
    <pattern
       patternUnits="userSpaceOnUse"
       width="18.440403"
       height="108.0424"
       patternTransform="translate(-369.84467,-202.73038)"
       id="pattern5596">
      <rect
         id="rect5592"
         y="0"
         x="0"
         height="108.0424"
         width="18.440403"
         style="fill:url(#pattern5594);fill-opacity:1;stroke:none" />
    </pattern>
    <pattern
       patternUnits="userSpaceOnUse"
       width="46.287461"
       height="111.20841"
       patternTransform="translate(-437.30628,-254.821)"
       id="pattern5603">
      <rect
         transform="matrix(0.50532746,0.86292767,-0.36655328,0.93039706,0,0)"
         y="-42.200592"
         x="46.105099"
         height="105.06828"
         width="14.380195"
         id="rect5601"
         style="opacity:0.95;fill:#000000;fill-opacity:1;stroke:#000000;stroke-width:0.58222377;stroke-linecap:butt;stroke-linejoin:miter;stroke-miterlimit:4;stroke-dasharray:none;stroke-dashoffset:0;stroke-opacity:1" />
    </pattern>
    <pattern
       patternUnits="userSpaceOnUse"
       width="170.44654"
       height="19.447405"
       patternTransform="translate(121.35293,-70.549603)"
       id="pattern5740">
      <path
         inkscape:connector-curvature="0"
         id="path5722"
         d="M 147.34764,0.63232972 134.21566,18.815076"
         style="fill:none;fill-rule:evenodd;stroke:#000000;stroke-width:2.16000009;stroke-linecap:butt;stroke-linejoin:miter;stroke-miterlimit:4;stroke-dasharray:none;stroke-opacity:1" />
      <path
         style="fill:none;fill-rule:evenodd;stroke:#000000;stroke-width:2.16000009;stroke-linecap:butt;stroke-linejoin:miter;stroke-miterlimit:4;stroke-dasharray:none;stroke-opacity:1"
         d="M 125.12429,0.63232972 111.99231,18.815076"
         id="path5724"
         inkscape:connector-curvature="0" />
      <path
         inkscape:connector-curvature="0"
         id="path5726"
         d="M 102.90093,0.63232972 89.768954,18.815076"
         style="fill:none;fill-rule:evenodd;stroke:#000000;stroke-width:2.16000009;stroke-linecap:butt;stroke-linejoin:miter;stroke-miterlimit:4;stroke-dasharray:none;stroke-opacity:1" />
      <path
         style="fill:none;fill-rule:evenodd;stroke:#000000;stroke-width:2.16000009;stroke-linecap:butt;stroke-linejoin:miter;stroke-miterlimit:4;stroke-dasharray:none;stroke-opacity:1"
         d="M 80.677574,0.63232972 67.545594,18.815076"
         id="path5728"
         inkscape:connector-curvature="0" />
      <path
         inkscape:connector-curvature="0"
         id="path5730"
         d="M 58.454234,0.63232972 45.322254,18.815076"
         style="fill:none;fill-rule:evenodd;stroke:#000000;stroke-width:2.16000009;stroke-linecap:butt;stroke-linejoin:miter;stroke-miterlimit:4;stroke-dasharray:none;stroke-opacity:1" />
      <path
         style="fill:none;fill-rule:evenodd;stroke:#000000;stroke-width:2.16000009;stroke-linecap:butt;stroke-linejoin:miter;stroke-miterlimit:4;stroke-dasharray:none;stroke-opacity:1"
         d="M 36.230874,0.63232972 23.098894,18.815076"
         id="path5732"
         inkscape:connector-curvature="0" />
      <path
         inkscape:connector-curvature="0"
         id="path5734"
         d="M 14.007514,0.63232972 0.87553368,18.815076"
         style="fill:none;fill-rule:evenodd;stroke:#000000;stroke-width:2.16000009;stroke-linecap:butt;stroke-linejoin:miter;stroke-miterlimit:4;stroke-dasharray:none;stroke-opacity:1" />
      <path
         style="fill:none;fill-rule:evenodd;stroke:#000000;stroke-width:2.16000009;stroke-linecap:butt;stroke-linejoin:miter;stroke-miterlimit:4;stroke-dasharray:none;stroke-opacity:1"
         d="M 169.571,0.63232972 156.43902,18.815076"
         id="path5736"
         inkscape:connector-curvature="0" />
    </pattern>
    <pattern
       patternUnits="userSpaceOnUse"
       width="53.99556"
       height="28.812838"
       patternTransform="translate(153.81953,-73.212014)"
       id="pattern5768">
      <path
         inkscape:connector-curvature="0"
         id="path5760"
         d="m 41.813345,1.274436 -19.1929,26.263966"
         style="fill:none;fill-rule:evenodd;stroke:#000000;stroke-width:4.32000017;stroke-linecap:butt;stroke-linejoin:miter;stroke-miterlimit:4;stroke-dasharray:none;stroke-opacity:1" />
      <path
         style="fill:none;fill-rule:evenodd;stroke:#000000;stroke-width:4.32000017;stroke-linecap:butt;stroke-linejoin:miter;stroke-miterlimit:4;stroke-dasharray:none;stroke-opacity:1"
         d="m 31.375115,1.274436 -19.1929,26.263966"
         id="path5762"
         inkscape:connector-curvature="0" />
      <path
         inkscape:connector-curvature="0"
         id="path5764"
         d="M 20.936865,1.274436 1.7439648,27.538402"
         style="fill:none;fill-rule:evenodd;stroke:#000000;stroke-width:4.32000017;stroke-linecap:butt;stroke-linejoin:miter;stroke-miterlimit:4;stroke-dasharray:none;stroke-opacity:1" />
      <path
         style="fill:none;fill-rule:evenodd;stroke:#000000;stroke-width:4.32000017;stroke-linecap:butt;stroke-linejoin:miter;stroke-miterlimit:4;stroke-dasharray:none;stroke-opacity:1"
         d="m 52.251595,1.274436 -19.1929,26.263966"
         id="path5766"
         inkscape:connector-curvature="0" />
    </pattern>
    <pattern
       patternUnits="userSpaceOnUse"
       width="25.352984"
       height="30.241078"
       patternTransform="translate(225.18065,-70.615478)"
       id="pattern5802">
      <path
         inkscape:connector-curvature="0"
         id="path5800"
         d="M 23.390777,1.5491107 1.962207,28.691968"
         style="fill:none;fill-rule:evenodd;stroke:#000000;stroke-width:5;stroke-linecap:butt;stroke-linejoin:miter;stroke-miterlimit:4;stroke-dasharray:none;stroke-opacity:1" />
    </pattern>
    <pattern
       patternUnits="userSpaceOnUse"
       width="163.68183"
       height="63.669762"
       patternTransform="translate(-92.55521,-119.47267)"
       id="pattern5811">
      <rect
         ry="0"
         transform="matrix(0.9785069,-0.20621409,0.20621409,0.9785069,0,0)"
         id="rect5805"
         y="32.426682"
         x="-6.8337164"
         height="31.201437"
         width="160.70163"
         style="fill:url(#pattern5809);stroke:none" />
    </pattern>
    <pattern
       patternUnits="userSpaceOnUse"
       width="206.53894"
       height="42.241215"
       patternTransform="translate(-55.41235,-112.32981)"
       id="pattern5818">
      <rect
         id="rect5814"
         y="0"
         x="0"
         height="42.241215"
         width="206.53894"
         style="fill:url(#pattern5816);stroke:none" />
    </pattern>
    <pattern
       patternUnits="userSpaceOnUse"
       width="37.409185"
       height="45.355923"
       patternTransform="translate(144.15255,-103.1729)"
       id="pattern5825">
      <path
         inkscape:connector-curvature="0"
         id="path5823"
         d="M 35.847448,1.24939 1.5617377,44.106533"
         style="fill:none;fill-rule:evenodd;stroke:#000000;stroke-width:4;stroke-linecap:butt;stroke-linejoin:miter;stroke-miterlimit:4;stroke-dasharray:none;stroke-opacity:1" />
    </pattern>
    <pattern
       patternUnits="userSpaceOnUse"
       width="113.08102"
       height="135.40809"
       patternTransform="translate(67.030921,-174.62755)"
       id="pattern5834">
      <path
         inkscape:connector-curvature="0"
         id="path5832"
         d="M 111.54051,1.2754744 1.540508,134.13262"
         style="fill:none;fill-rule:evenodd;stroke:#000000;stroke-width:4;stroke-linecap:butt;stroke-linejoin:miter;stroke-miterlimit:4;stroke-dasharray:none;stroke-opacity:1" />
    </pattern>
    <pattern
       patternUnits="userSpaceOnUse"
       width="154.83522"
       height="183.53249"
       patternTransform="translate(303.29667,-177.97547)"
       id="pattern5843">
      <path
         inkscape:connector-curvature="0"
         id="path5841"
         d="M 150.98904,3.1948161 3.8461865,180.33767"
         style="fill:none;fill-rule:evenodd;stroke:#000000;stroke-width:10;stroke-linecap:butt;stroke-linejoin:miter;stroke-miterlimit:4;stroke-dasharray:none;stroke-opacity:1" />
    </pattern>
    <pattern
       patternUnits="userSpaceOnUse"
       width="2.4285263"
       height="152.86649"
       patternTransform="translate(622.35716,-157.64247)"
       id="pattern5852">
      <path
         inkscape:connector-curvature="0"
         id="path5850"
         d="M 1.9285482,0.00467269 0.49997817,152.86182"
         style="fill:none;fill-rule:evenodd;stroke:#000000;stroke-width:1px;stroke-linecap:butt;stroke-linejoin:miter;stroke-opacity:1" />
    </pattern>
    <pattern
       patternUnits="userSpaceOnUse"
       width="27.688039"
       height="157.46583"
       patternTransform="translate(520.4417,-164.94214)"
       id="pattern5861">
      <path
         inkscape:connector-curvature="0"
         id="path5859"
         d="M 26.701165,0.1614886 0.98687458,157.30434"
         style="fill:none;fill-rule:evenodd;stroke:#000000;stroke-width:2;stroke-linecap:butt;stroke-linejoin:miter;stroke-miterlimit:4;stroke-dasharray:none;stroke-opacity:1" />
    </pattern>
    <pattern
       patternUnits="userSpaceOnUse"
       width="228.57143"
       height="1"
       patternTransform="translate(-135.71429,10.433633)"
       id="pattern5870">
      <path
         inkscape:connector-curvature="0"
         id="path5868"
         d="m 0,0.5 228.57143,0"
         style="fill:none;fill-rule:evenodd;stroke:#000000;stroke-width:1px;stroke-linecap:butt;stroke-linejoin:miter;stroke-opacity:1" />
    </pattern>
    <pattern
       patternUnits="userSpaceOnUse"
       width="243.0477"
       height="48.124532"
       patternTransform="translate(-158.66671,44.728509)"
       id="pattern5879">
      <path
         inkscape:connector-curvature="0"
         id="path5877"
         d="M 242.95242,0.49083772 0.09528026,47.633695"
         style="fill:none;fill-rule:evenodd;stroke:#000000;stroke-width:1px;stroke-linecap:butt;stroke-linejoin:miter;stroke-opacity:1" />
    </pattern>
  </defs>
  <sodipodi:namedview
     id="base"
     pagecolor="#ffffff"
     bordercolor="#666666"
     borderopacity="1.0"
     inkscape:pageopacity="0.0"
     inkscape:pageshadow="2"
     inkscape:zoom="1.4"
     inkscape:cx="570.35225"
     inkscape:cy="782.53736"
     inkscape:document-units="px"
     inkscape:current-layer="layer1"
     showgrid="false"
     inkscape:window-width="1234"
     inkscape:window-height="755"
     inkscape:window-x="381"
     inkscape:window-y="1081"
     inkscape:window-maximized="1" />
  <metadata
     id="metadata7">
    <rdf:RDF>
      <cc:Work
         rdf:about="">
        <dc:format>image/svg+xml</dc:format>
        <dc:type
           rdf:resource="http://purl.org/dc/dcmitype/StillImage" />
        <dc:title></dc:title>
      </cc:Work>
    </rdf:RDF>
  </metadata>
  <g
     inkscape:label="Layer 1"
     inkscape:groupmode="layer"
     id="layer1">
    <rect
       style="opacity:0.95;fill:#000000;fill-opacity:1;stroke:#000000;stroke-width:0.71570027;stroke-linecap:butt;stroke-linejoin:miter;stroke-miterlimit:4;stroke-dasharray:none;stroke-dashoffset:0;stroke-opacity:1"
       id="rect4136"
       width="291.20822"
       height="12.406131"
       x="214.01019"
       y="219.52948" />
    <rect
       y="359.2554"
       x="214.01019"
       height="12.406131"
       width="291.20822"
       id="rect4138"
       style="opacity:0.95;fill:#000000;fill-opacity:1;stroke:#000000;stroke-width:0.71570027;stroke-linecap:butt;stroke-linejoin:miter;stroke-miterlimit:4;stroke-dasharray:none;stroke-dashoffset:0;stroke-opacity:1" />
    <path
       style="fill:none;fill-rule:evenodd;stroke:#000000;stroke-width:0.54714775px;stroke-linecap:butt;stroke-linejoin:miter;stroke-opacity:1"
       d="m 358.85015,185.93363 0,-11.72751 -19.98883,-10.81339 34.53212,-18.6809 -35.36697,-19.13254 32.65006,-17.66276 -17.35898,-9.39072 0,-14.735035"
       id="path4140"
       inkscape:connector-curvature="0" />
    <rect
       ry="0"
       y="371.20477"
       x="213.59441"
       height="21.476072"
       width="290.84738"
       id="rect5905"
       style="opacity:0.95;fill:url(#pattern5907);fill-opacity:1;stroke:#000000;stroke-width:1.10930264;stroke-linecap:butt;stroke-linejoin:miter;stroke-miterlimit:4;stroke-dasharray:none;stroke-dashoffset:0;stroke-opacity:1" />
    <rect
       style="opacity:0.95;fill:url(#pattern5911);fill-opacity:1;stroke:#000000;stroke-width:1.10930264;stroke-linecap:butt;stroke-linejoin:miter;stroke-miterlimit:4;stroke-dasharray:none;stroke-dashoffset:0;stroke-opacity:1"
       id="rect5909"
       width="290.84738"
       height="21.476072"
       x="214.60455"
       y="62.098095"
       ry="0" />
    <path
       inkscape:connector-curvature="0"
       id="path5915"
       d="m 504.79079,231.76359 125.71429,0"
       style="fill:none;fill-rule:evenodd;stroke:#000000;stroke-width:1px;stroke-linecap:butt;stroke-linejoin:miter;stroke-opacity:1" />
    <path
       style="fill:none;fill-rule:evenodd;stroke:#000000;stroke-width:1px;stroke-linecap:butt;stroke-linejoin:miter;stroke-opacity:1"
       d="m 505.71428,359.50506 125.71429,0"
       id="path5917"
       inkscape:connector-curvature="0" />
    <path
       style="fill:none;fill-rule:evenodd;stroke:#000000;stroke-width:0.87351596px;stroke-linecap:butt;stroke-linejoin:miter;stroke-opacity:1;marker-start:url(#TriangleInL);marker-end:url(#TriangleOutL)"
       d="m 565.68543,236.76863 0,117.92887"
       id="path5919"
       inkscape:connector-curvature="0" />
    <text
       xml:space="preserve"
       style="font-style:normal;font-variant:normal;font-weight:normal;font-stretch:normal;font-size:18.26413155px;line-height:125%;font-family:sans-serif;-inkscape-font-specification:'sans-serif, Normal';text-align:start;letter-spacing:0px;word-spacing:0px;writing-mode:lr-tb;text-anchor:start;fill:#000000;fill-opacity:1;stroke:none;stroke-width:1px;stroke-linecap:butt;stroke-linejoin:miter;stroke-opacity:1"
       x="564.34631"
       y="178.42078"
       id="text6343"
       sodipodi:linespacing="125%"
       transform="scale(0.58445223,1.7110038)"><tspan
         sodipodi:role="line"
         id="tspan6345"
         x="564.34631"
         y="178.42078">$\tilde{\varepsilon}=\varepsilon_a$</tspan></text>
    <text
       sodipodi:linespacing="125%"
       id="text6347"
       y="301.65643"
       x="571.68542"
       style="font-style:normal;font-variant:normal;font-weight:normal;font-stretch:normal;font-size:31.25px;line-height:125%;font-family:sans-serif;-inkscape-font-specification:'sans-serif, Normal';text-align:start;letter-spacing:0px;word-spacing:0px;writing-mode:lr-tb;text-anchor:start;fill:#000000;fill-opacity:1;stroke:none;stroke-width:1px;stroke-linecap:butt;stroke-linejoin:miter;stroke-opacity:1"
       xml:space="preserve"><tspan
         y="301.65643"
         x="571.68542"
         id="tspan6349"
         sodipodi:role="line">$d_0$</tspan></text>
    <path
       style="fill:none;fill-rule:evenodd;stroke:#000000;stroke-width:1px;stroke-linecap:butt;stroke-linejoin:miter;stroke-opacity:1;marker-end:url(#marker6378)"
       d="m 196.797,231.73254 0,67.68022"
       id="path6370"
       inkscape:connector-curvature="0" />
    <text
       xml:space="preserve"
       style="font-style:normal;font-variant:normal;font-weight:normal;font-stretch:normal;font-size:31.25px;line-height:125%;font-family:sans-serif;-inkscape-font-specification:'sans-serif, Normal';text-align:start;letter-spacing:0px;word-spacing:0px;writing-mode:lr-tb;text-anchor:start;fill:#000000;fill-opacity:1;stroke:none;stroke-width:1px;stroke-linecap:butt;stroke-linejoin:miter;stroke-opacity:1"
       x="167.56351"
       y="279.39246"
       id="text6454"
       sodipodi:linespacing="125%"><tspan
         sodipodi:role="line"
         id="tspan6456"
         x="167.56351"
         y="279.39246">$x$</tspan></text>
    <text
       xml:space="preserve"
       style="font-style:normal;font-variant:normal;font-weight:normal;font-stretch:normal;font-size:31.25px;line-height:125%;font-family:sans-serif;-inkscape-font-specification:'sans-serif, Normal';text-align:start;letter-spacing:0px;word-spacing:0px;writing-mode:lr-tb;text-anchor:start;fill:#000000;fill-opacity:1;stroke:none;stroke-width:1px;stroke-linecap:butt;stroke-linejoin:miter;stroke-opacity:1"
       x="337.39096"
       y="286.66656"
       id="text6458"
       sodipodi:linespacing="125%"><tspan
         sodipodi:role="line"
         id="tspan6460"
         x="337.39096"
         y="286.66656" /></text>
    <text
       xml:space="preserve"
       style="font-style:normal;font-variant:normal;font-weight:normal;font-stretch:normal;font-size:31.25px;line-height:125%;font-family:sans-serif;-inkscape-font-specification:'sans-serif, Normal';text-align:start;letter-spacing:0px;word-spacing:0px;writing-mode:lr-tb;text-anchor:start;fill:#000000;fill-opacity:1;stroke:none;stroke-width:1px;stroke-linecap:butt;stroke-linejoin:miter;stroke-opacity:1"
       x="386.88843"
       y="146.25537"
       id="text6498"
       sodipodi:linespacing="125%"><tspan
         sodipodi:role="line"
         id="tspan6500"
         x="386.88843"
         y="146.25537">$k$</tspan></text>
    <text
       xml:space="preserve"
       style="font-style:normal;font-variant:normal;font-weight:normal;font-stretch:normal;font-size:17.36345673px;line-height:125%;font-family:sans-serif;-inkscape-font-specification:'sans-serif, Normal';text-align:start;letter-spacing:0px;word-spacing:0px;writing-mode:lr-tb;text-anchor:start;fill:#000000;fill-opacity:1;stroke:none;stroke-width:1px;stroke-linecap:butt;stroke-linejoin:miter;stroke-opacity:1"
       x="1153.6742"
       y="93.16349"
       id="text6506"
       sodipodi:linespacing="125%"
       transform="scale(0.55563061,1.7997568)"><tspan
         sodipodi:role="line"
         id="tspan6508"
         x="1153.6742"
         y="93.16349">$\phi^*$</tspan></text>
    <path
       style="fill:none;fill-rule:evenodd;stroke:#000000;stroke-width:1px;stroke-linecap:butt;stroke-linejoin:miter;stroke-opacity:1;marker-end:url(#marker6561)"
       d="m 497.44239,116.29783 -41.1091,62.56296"
       id="path6553"
       inkscape:connector-curvature="0" />
    <text
       xml:space="preserve"
       style="font-style:normal;font-variant:normal;font-weight:normal;font-stretch:normal;font-size:26.41121292px;line-height:125%;font-family:sans-serif;-inkscape-font-specification:'sans-serif, Normal';text-align:start;letter-spacing:0px;word-spacing:0px;writing-mode:lr-tb;text-anchor:start;fill:#000000;fill-opacity:1;stroke:none;stroke-width:1px;stroke-linecap:butt;stroke-linejoin:miter;stroke-opacity:1"
       x="520.44244"
       y="95.567581"
       id="text6607"
       sodipodi:linespacing="125%"
       transform="scale(0.84515884,1.1832095)"><tspan
         sodipodi:role="line"
         id="tspan6609"
         x="520.44244"
         y="95.567581">\scriptsize{Unit area}</tspan></text>
    <rect
       style="opacity:1;fill:#dfdfdf;fill-opacity:1;fill-rule:nonzero;stroke:#000000;stroke-width:0.49948257;stroke-linecap:butt;stroke-linejoin:miter;stroke-miterlimit:4;stroke-dasharray:none;stroke-dashoffset:0;stroke-opacity:1"
       id="rect6611"
       width="291.53369"
       height="31.429089"
       x="213.8237"
       y="188.64766" />
    <text
       xml:space="preserve"
       style="font-style:normal;font-variant:normal;font-weight:normal;font-stretch:normal;font-size:31.25px;line-height:125%;font-family:sans-serif;-inkscape-font-specification:'sans-serif, Normal';text-align:start;letter-spacing:0px;word-spacing:0px;writing-mode:lr-tb;text-anchor:start;fill:#000000;fill-opacity:1;stroke:none;stroke-width:1px;stroke-linecap:butt;stroke-linejoin:miter;stroke-opacity:1"
       x="341.93661"
       y="213.93559"
       id="text6613"
       sodipodi:linespacing="125%"><tspan
         sodipodi:role="line"
         id="tspan6615"
         x="341.93661"
         y="213.93559">$m$</tspan></text>
    <path
       style="fill:none;fill-rule:evenodd;stroke:#000000;stroke-width:1px;stroke-linecap:butt;stroke-linejoin:miter;stroke-opacity:1"
       d="m 506.08643,227.06758 15.15228,0 0,-49.49748 171.72594,0 0,111.11678"
       id="path6977"
       inkscape:connector-curvature="0"
       sodipodi:nodetypes="ccccc" />
    <path
       style="fill:none;fill-rule:evenodd;stroke:#000000;stroke-width:1.02228475px;stroke-linecap:butt;stroke-linejoin:miter;stroke-opacity:1"
       d="m 507.09658,365.4529 8.26131,0 0,46.46986 176.58546,0 0,-103.54632"
       id="path6979"
       inkscape:connector-curvature="0"
       sodipodi:nodetypes="ccccc" />
    <path
       style="fill:none;fill-rule:evenodd;stroke:#000000;stroke-width:1px;stroke-linecap:butt;stroke-linejoin:miter;stroke-opacity:1"
       d="m 673,288.32505 37.5,0"
       id="path6981"
       inkscape:connector-curvature="0" />
    <rect
       style="opacity:1;fill:#030303;fill-opacity:1;fill-rule:nonzero;stroke:#000000;stroke-width:0.40370721;stroke-linecap:butt;stroke-linejoin:miter;stroke-miterlimit:4;stroke-dasharray:none;stroke-dashoffset:0;stroke-opacity:1"
       id="rect6983"
       width="27.875488"
       height="9.1876659"
       x="678.77435"
       y="298.9928" />
    <g
       id="g7143"
       transform="translate(0.25253814,8.5862966)">
      <g
         transform="matrix(1.6065526,0,0,2.6039854,-373.86101,-691.83069)"
         id="g7135">
        <path
           sodipodi:nodetypes="cc"
           style="fill:none;fill-rule:evenodd;stroke:#000000;stroke-width:0.82571292px;stroke-linecap:butt;stroke-linejoin:miter;stroke-opacity:1"
           d="m 632.85714,420.33766 0,7.02454"
           id="path7117"
           inkscape:connector-curvature="0" />
        <path
           style="fill:none;fill-rule:evenodd;stroke:#000000;stroke-width:1px;stroke-linecap:butt;stroke-linejoin:miter;stroke-opacity:1"
           d="m 618.03572,427.75509 29.46428,0"
           id="path7119"
           inkscape:connector-curvature="0" />
        <path
           inkscape:connector-curvature="0"
           id="path7121"
           d="m 621.45243,430.01699 22.85714,0"
           style="fill:none;fill-rule:evenodd;stroke:#000000;stroke-width:1;stroke-linecap:butt;stroke-linejoin:miter;stroke-miterlimit:4;stroke-dasharray:none;stroke-opacity:1" />
        <path
           style="fill:none;fill-rule:evenodd;stroke:#000000;stroke-width:1;stroke-linecap:butt;stroke-linejoin:miter;stroke-miterlimit:4;stroke-dasharray:none;stroke-opacity:1"
           d="m 625.51171,432.27889 14.73214,0"
           id="path7123"
           inkscape:connector-curvature="0" />
        <path
           inkscape:connector-curvature="0"
           id="path7125"
           d="m 629.01028,434.54079 7.67857,0"
           style="fill:none;fill-rule:evenodd;stroke:#000000;stroke-width:1;stroke-linecap:butt;stroke-linejoin:miter;stroke-miterlimit:4;stroke-dasharray:none;stroke-opacity:1" />
        <path
           style="fill:none;fill-rule:evenodd;stroke:#000000;stroke-width:1;stroke-linecap:butt;stroke-linejoin:miter;stroke-miterlimit:4;stroke-dasharray:none;stroke-opacity:1"
           d="m 631.47021,436.8027 2.94642,0"
           id="path7127"
           inkscape:connector-curvature="0" />
      </g>
    </g>
  </g>
</svg>
