<?xml version="1.0" encoding="UTF-8" standalone="no"?>
<!-- Created with Inkscape (http://www.inkscape.org/) -->

<svg
   xmlns:dc="http://purl.org/dc/elements/1.1/"
   xmlns:cc="http://creativecommons.org/ns#"
   xmlns:rdf="http://www.w3.org/1999/02/22-rdf-syntax-ns#"
   xmlns:svg="http://www.w3.org/2000/svg"
   xmlns="http://www.w3.org/2000/svg"
   xmlns:sodipodi="http://sodipodi.sourceforge.net/DTD/sodipodi-0.dtd"
   xmlns:inkscape="http://www.inkscape.org/namespaces/inkscape"
   width="210mm"
   height="297mm"
   viewBox="0 0 744.09448819 1052.3622047"
   id="svg2"
   version="1.1"
   inkscape:version="0.91 r13725"
   sodipodi:docname="BCs.svg"
   enable-background="new">
  <defs
     id="defs4">
    <marker
       inkscape:stockid="Arrow1Mstart"
       orient="auto"
       refY="0.0"
       refX="0.0"
       id="marker6213"
       style="overflow:visible"
       inkscape:isstock="true">
      <path
         id="path6215"
         d="M 0.0,0.0 L 5.0,-5.0 L -12.5,0.0 L 5.0,5.0 L 0.0,0.0 z "
         style="fill-rule:evenodd;stroke:#000000;stroke-width:1pt;stroke-opacity:1;fill:#000000;fill-opacity:1"
         transform="scale(0.4) translate(10,0)" />
    </marker>
    <inkscape:perspective
       sodipodi:type="inkscape:persp3d"
       inkscape:vp_x="128.86271 : 1083.1648 : 1"
       inkscape:vp_y="1.3779838e-13 : 2250.4183 : 0"
       inkscape:vp_z="1853.7599 : 1083.1648 : 1"
       inkscape:persp3d-origin="991.31127 : 688.45571 : 1"
       id="perspective6185" />
    <marker
       inkscape:isstock="true"
       style="overflow:visible"
       id="marker5257"
       refX="0.0"
       refY="0.0"
       orient="auto"
       inkscape:stockid="Arrow1Mstart"
       inkscape:collect="always">
      <path
         transform="scale(0.4) translate(10,0)"
         style="fill-rule:evenodd;stroke:#000000;stroke-width:1pt;stroke-opacity:1;fill:#000000;fill-opacity:1"
         d="M 0.0,0.0 L 5.0,-5.0 L -12.5,0.0 L 5.0,5.0 L 0.0,0.0 z "
         id="path5259" />
    </marker>
    <marker
       inkscape:isstock="true"
       style="overflow:visible"
       id="marker4609"
       refX="0.0"
       refY="0.0"
       orient="auto"
       inkscape:stockid="Arrow1Mstart">
      <path
         transform="scale(0.4) translate(10,0)"
         style="fill-rule:evenodd;stroke:#000000;stroke-width:1pt;stroke-opacity:1;fill:#000000;fill-opacity:1"
         d="M 0.0,0.0 L 5.0,-5.0 L -12.5,0.0 L 5.0,5.0 L 0.0,0.0 z "
         id="path4611" />
    </marker>
    <marker
       inkscape:stockid="Arrow1Mstart"
       orient="auto"
       refY="0.0"
       refX="0.0"
       id="Arrow1Mstart"
       style="overflow:visible"
       inkscape:isstock="true"
       inkscape:collect="always">
      <path
         id="path4223"
         d="M 0.0,0.0 L 5.0,-5.0 L -12.5,0.0 L 5.0,5.0 L 0.0,0.0 z "
         style="fill-rule:evenodd;stroke:#000000;stroke-width:1pt;stroke-opacity:1;fill:#000000;fill-opacity:1"
         transform="scale(0.4) translate(10,0)" />
    </marker>
    <marker
       inkscape:stockid="Arrow1Lstart"
       orient="auto"
       refY="0.0"
       refX="0.0"
       id="Arrow1Lstart"
       style="overflow:visible"
       inkscape:isstock="true">
      <path
         id="path4217"
         d="M 0.0,0.0 L 5.0,-5.0 L -12.5,0.0 L 5.0,5.0 L 0.0,0.0 z "
         style="fill-rule:evenodd;stroke:#000000;stroke-width:1pt;stroke-opacity:1;fill:#000000;fill-opacity:1"
         transform="scale(0.8) translate(12.5,0)" />
    </marker>
    <marker
       inkscape:stockid="Arrow1Lend"
       orient="auto"
       refY="0.0"
       refX="0.0"
       id="Arrow1Lend"
       style="overflow:visible;"
       inkscape:isstock="true">
      <path
         id="path4220"
         d="M 0.0,0.0 L 5.0,-5.0 L -12.5,0.0 L 5.0,5.0 L 0.0,0.0 z "
         style="fill-rule:evenodd;stroke:#000000;stroke-width:1pt;stroke-opacity:1;fill:#000000;fill-opacity:1"
         transform="scale(0.8) rotate(180) translate(12.5,0)" />
    </marker>
    <marker
       inkscape:stockid="Arrow1Mend"
       orient="auto"
       refY="0.0"
       refX="0.0"
       id="Arrow1Mend"
       style="overflow:visible;"
       inkscape:isstock="true">
      <path
         id="path4226"
         d="M 0.0,0.0 L 5.0,-5.0 L -12.5,0.0 L 5.0,5.0 L 0.0,0.0 z "
         style="fill-rule:evenodd;stroke:#000000;stroke-width:1pt;stroke-opacity:1;fill:#000000;fill-opacity:1"
         transform="scale(0.4) rotate(180) translate(10,0)" />
    </marker>
    <inkscape:perspective
       sodipodi:type="inkscape:persp3d"
       inkscape:vp_x="-363.89879 : 1208.9155 : 1"
       inkscape:vp_y="1.3779838e-13 : 2250.4183 : 0"
       inkscape:vp_z="1360.9984 : 1208.9155 : 1"
       inkscape:persp3d-origin="498.5498 : 814.20641 : 1"
       id="perspective4140" />
  </defs>
  <sodipodi:namedview
     id="base"
     pagecolor="#ffffff"
     bordercolor="#666666"
     borderopacity="1.0"
     inkscape:pageopacity="0.0"
     inkscape:pageshadow="2"
     inkscape:zoom="0.49497475"
     inkscape:cx="427.42859"
     inkscape:cy="677.12082"
     inkscape:document-units="px"
     inkscape:current-layer="layer1"
     showgrid="false"
     inkscape:window-width="1292"
     inkscape:window-height="805"
     inkscape:window-x="59"
     inkscape:window-y="0"
     inkscape:window-maximized="0"
     inkscape:snap-text-baseline="false" />
  <metadata
     id="metadata7">
    <rdf:RDF>
      <cc:Work
         rdf:about="">
        <dc:format>image/svg+xml</dc:format>
        <dc:type
           rdf:resource="http://purl.org/dc/dcmitype/StillImage" />
        <dc:title></dc:title>
      </cc:Work>
    </rdf:RDF>
  </metadata>
  <g
     inkscape:label="Layer 1"
     inkscape:groupmode="layer"
     id="layer1"
     style="">
    <g
       id="g6103">
      <g
         inkscape:corner7="0.69112381 : -0.18294762 : 0.25 : 1"
         inkscape:corner0="1.1002666 : -0.041614144 : 0 : 1"
         inkscape:perspectiveID="#perspective4140"
         style="opacity:1;fill:none;fill-opacity:1;stroke:#3f6253;stroke-width:1;stroke-linecap:butt;stroke-linejoin:miter;stroke-miterlimit:4;stroke-dasharray:8, 8;stroke-dashoffset:0;stroke-opacity:1"
         id="g4142"
         sodipodi:type="inkscape:box3d">
        <path
           points="146.08669,320.2999 302.55684,258.88532 186.53786,186.56429 46.738883,227.40644 "
           d="M 46.738883,227.40644 146.08669,320.2999 302.55684,258.88532 186.53786,186.56429 Z"
           inkscape:box3dsidetype="13"
           style="fill:#afafde;fill-rule:evenodd;stroke:none;stroke-width:1px;stroke-linecap:butt;stroke-linejoin:round;stroke-opacity:1"
           id="path4152"
           sodipodi:type="inkscape:box3dside" />
        <path
           points="46.738883,227.40644 186.53786,186.56429 186.53786,51.235204 46.738883,75.968788 "
           d="m 46.738883,75.968788 0,151.437652 139.798977,-40.84215 0,-135.329086 z"
           inkscape:box3dsidetype="6"
           style="fill:#353564;fill-rule:evenodd;stroke:none;stroke-width:1px;stroke-linecap:butt;stroke-linejoin:round;stroke-opacity:1"
           id="path4144"
           sodipodi:type="inkscape:box3dside" />
        <path
           points="302.55684,95.032079 302.55684,258.88532 186.53786,186.56429 186.53786,51.235204 "
           d="m 186.53786,51.235204 116.01898,43.796875 0,163.853241 -116.01898,-72.32103 z"
           inkscape:box3dsidetype="11"
           style="fill:#e9e9ff;fill-rule:evenodd;stroke:none;stroke-width:1px;stroke-linecap:butt;stroke-linejoin:round;stroke-opacity:1"
           id="path4154"
           sodipodi:type="inkscape:box3dside" />
        <path
           points="146.08669,132.22411 302.55684,95.032079 186.53786,51.235204 46.738883,75.968788 "
           d="M 46.738883,75.968788 146.08669,132.22411 302.55684,95.032079 186.53786,51.235204 Z"
           inkscape:box3dsidetype="5"
           style="fill:#858585;fill-rule:evenodd;stroke:none;stroke-width:1px;stroke-linecap:butt;stroke-linejoin:round;stroke-opacity:1;fill-opacity:1"
           id="path4146"
           sodipodi:type="inkscape:box3dside" />
        <path
           points="146.08669,320.2999 302.55684,258.88532 302.55684,95.032079 146.08669,132.22411 "
           d="m 146.08669,132.22411 0,188.07579 156.47015,-61.41458 0,-163.853241 z"
           inkscape:box3dsidetype="14"
           style="fill:#ebebeb;fill-rule:evenodd;stroke:none;stroke-width:1px;stroke-linecap:butt;stroke-linejoin:round;stroke-opacity:1;fill-opacity:1"
           id="path4150"
           sodipodi:type="inkscape:box3dside" />
        <path
           points="146.08669,132.22411 146.08669,320.2999 46.738883,227.40644 46.738883,75.968788 "
           d="m 46.738883,75.968788 99.347807,56.255322 0,188.07579 -99.347807,-92.89346 z"
           inkscape:box3dsidetype="3"
           style="fill:#a3a3a3;fill-rule:evenodd;stroke:none;stroke-width:1px;stroke-linecap:butt;stroke-linejoin:round;stroke-opacity:1;fill-opacity:1"
           id="path4148"
           sodipodi:type="inkscape:box3dside" />
      </g>
      <text
         sodipodi:linespacing="125%"
         id="text4156"
         y="373.03464"
         x="80.812195"
         style="font-style:normal;font-variant:normal;font-weight:normal;font-stretch:normal;font-size:31.25px;line-height:125%;font-family:sans-serif;-inkscape-font-specification:'sans-serif, Normal';text-align:start;letter-spacing:0px;word-spacing:0px;writing-mode:lr-tb;text-anchor:start;fill:#000000;fill-opacity:1;stroke:none;stroke-width:1px;stroke-linecap:butt;stroke-linejoin:miter;stroke-opacity:1"
         xml:space="preserve"><tspan
           y="373.03464"
           x="80.812195"
           id="tspan4160"
           sodipodi:role="line">$p = p_0$</tspan></text>
      <text
         xml:space="preserve"
         style="font-style:normal;font-variant:normal;font-weight:normal;font-stretch:normal;font-size:31.25px;line-height:125%;font-family:sans-serif;-inkscape-font-specification:'sans-serif, Normal';text-align:start;letter-spacing:0px;word-spacing:0px;writing-mode:lr-tb;text-anchor:start;fill:#000000;fill-opacity:1;stroke:none;stroke-width:1px;stroke-linecap:butt;stroke-linejoin:miter;stroke-opacity:1"
         x="228.01019"
         y="187.16658"
         id="text4181"
         sodipodi:linespacing="125%"><tspan
           y="187.16658"
           x="228.01019"
           id="tspan4185"
           sodipodi:role="line">$\mathbf{n}(\nabla\,p) = 0$</tspan></text>
      <text
         sodipodi:linespacing="125%"
         id="text4187"
         y="185.14629"
         x="-108.64978"
         style="font-style:normal;font-variant:normal;font-weight:normal;font-stretch:normal;font-size:31.25px;line-height:125%;font-family:sans-serif;-inkscape-font-specification:'sans-serif, Normal';text-align:start;letter-spacing:0px;word-spacing:0px;writing-mode:lr-tb;text-anchor:start;fill:#000000;fill-opacity:1;stroke:none;stroke-width:1px;stroke-linecap:butt;stroke-linejoin:miter;stroke-opacity:1"
         xml:space="preserve"><tspan
           y="185.14629"
           x="-108.64978"
           id="tspan4191"
           sodipodi:role="line">$\mathbf{n}(\nabla\,p) = a_n$</tspan></text>
      <text
         sodipodi:linespacing="125%"
         id="text4193"
         y="217.16658"
         x="226.01019"
         style="font-style:normal;font-variant:normal;font-weight:normal;font-stretch:normal;font-size:31.25px;line-height:125%;font-family:sans-serif;-inkscape-font-specification:'sans-serif, Normal';text-align:start;letter-spacing:0px;word-spacing:0px;writing-mode:lr-tb;text-anchor:start;fill:#000000;fill-opacity:1;stroke:none;stroke-width:1px;stroke-linecap:butt;stroke-linejoin:miter;stroke-opacity:1"
         xml:space="preserve"><tspan
           y="217.16658"
           x="226.01019"
           id="tspan4197"
           sodipodi:role="line">(Hard Wall)</tspan></text>
      <text
         xml:space="preserve"
         style="font-style:normal;font-variant:normal;font-weight:normal;font-stretch:normal;font-size:31.25px;line-height:125%;font-family:sans-serif;-inkscape-font-specification:'sans-serif, Normal';text-align:start;letter-spacing:0px;word-spacing:0px;writing-mode:lr-tb;text-anchor:start;fill:#000000;fill-opacity:1;stroke:none;stroke-width:1px;stroke-linecap:butt;stroke-linejoin:miter;stroke-opacity:1"
         x="-166.91374"
         y="213.28841"
         id="text4199"
         sodipodi:linespacing="125%"><tspan
           y="213.28841"
           x="-166.91374"
           id="tspan4203"
           sodipodi:role="line">(Normal acceleration)</tspan></text>
      <text
         sodipodi:linespacing="125%"
         id="text4205"
         y="401.2377"
         x="21.939072"
         style="font-style:normal;font-variant:normal;font-weight:normal;font-stretch:normal;font-size:31.25px;line-height:125%;font-family:sans-serif;-inkscape-font-specification:'sans-serif, Normal';text-align:start;letter-spacing:0px;word-spacing:0px;writing-mode:lr-tb;text-anchor:start;fill:#000000;fill-opacity:1;stroke:none;stroke-width:1px;stroke-linecap:butt;stroke-linejoin:miter;stroke-opacity:1"
         xml:space="preserve"><tspan
           y="401.2377"
           x="21.939072"
           id="tspan4209"
           sodipodi:role="line">(Pressure Input)</tspan></text>
      <path
         inkscape:connector-curvature="0"
         id="path4211"
         d="m 194.21047,310.56897 -24.57654,44.95122"
         style="fill:none;fill-rule:evenodd;stroke:#000000;stroke-width:0.75091976px;stroke-linecap:butt;stroke-linejoin:miter;stroke-opacity:1;marker-start:url(#Arrow1Mstart)" />
      <path
         style="fill:none;fill-rule:evenodd;stroke:#000000;stroke-width:0.68294561px;stroke-linecap:butt;stroke-linejoin:miter;stroke-opacity:1;marker-start:url(#marker4609)"
         d="M 67.309706,151.19941 20.463662,164.73495"
         id="path4607"
         inkscape:connector-curvature="0" />
      <text
         sodipodi:linespacing="125%"
         id="text5237"
         y="-8.5999622"
         x="-65.055878"
         style="font-style:normal;font-variant:normal;font-weight:normal;font-stretch:normal;font-size:31.25px;line-height:125%;font-family:sans-serif;-inkscape-font-specification:'sans-serif, Normal';text-align:start;letter-spacing:0px;word-spacing:0px;writing-mode:lr-tb;text-anchor:start;fill:#000000;fill-opacity:1;stroke:none;stroke-width:1px;stroke-linecap:butt;stroke-linejoin:miter;stroke-opacity:1"
         xml:space="preserve"><tspan
           y="-8.5999622"
           x="-65.055878"
           id="tspan5245"
           sodipodi:role="line">$\mathbf{n}(\nabla\,p)+i\, k \, p = 2 \, i  \, k \, p_{in}$</tspan></text>
      <text
         xml:space="preserve"
         style="font-style:normal;font-variant:normal;font-weight:normal;font-stretch:normal;font-size:31.25px;line-height:125%;font-family:sans-serif;-inkscape-font-specification:'sans-serif, Normal';text-align:start;letter-spacing:0px;word-spacing:0px;writing-mode:lr-tb;text-anchor:start;fill:#000000;fill-opacity:1;stroke:none;stroke-width:1px;stroke-linecap:butt;stroke-linejoin:miter;stroke-opacity:1"
         x="-58.203064"
         y="27.460953"
         id="text5241"
         sodipodi:linespacing="125%"><tspan
           y="27.460953"
           x="-58.203064"
           id="tspan5247"
           sodipodi:role="line">(Radiation condition)</tspan></text>
      <path
         style="fill:none;fill-rule:evenodd;stroke:#000000;stroke-width:0.75091976px;stroke-linecap:butt;stroke-linejoin:miter;stroke-opacity:1;marker-start:url(#marker5257)"
         d="M 163.79498,84.593346 130.50014,45.656567"
         id="path5255"
         inkscape:connector-curvature="0" />
    </g>
    <g
       inkscape:corner7="0.69112381 : -0.18294762 : 0.25 : 1"
       inkscape:corner0="1.1002666 : -0.041614144 : 0 : 1"
       inkscape:perspectiveID="#perspective6185"
       style="opacity:1;fill:none;fill-opacity:1;stroke:none;stroke-width:1;stroke-linecap:butt;stroke-linejoin:miter;stroke-miterlimit:4;stroke-dasharray:8, 8;stroke-dashoffset:0;stroke-opacity:1"
       id="g6133"
       sodipodi:type="inkscape:box3d">
      <path
         points="638.84817,446.05059 795.31832,384.63602 679.29935,312.31499 539.50036,353.15713 "
         d="m 539.50036,353.15713 99.34781,92.89346 156.47015,-61.41457 -116.01897,-72.32103 z"
         inkscape:box3dsidetype="13"
         style="fill:#afafde;fill-rule:evenodd;stroke:none;stroke-width:1px;stroke-linecap:butt;stroke-linejoin:round;stroke-opacity:1"
         id="path6135"
         sodipodi:type="inkscape:box3dside" />
      <path
         points="539.50036,353.15713 679.29935,312.31499 679.29935,176.9859 539.50036,201.71948 "
         d="m 539.50036,201.71948 0,151.43765 139.79899,-40.84214 0,-135.32909 z"
         inkscape:box3dsidetype="6"
         style="fill:#353564;fill-rule:evenodd;stroke:none;stroke-width:1px;stroke-linecap:butt;stroke-linejoin:round;stroke-opacity:1"
         id="path6137"
         sodipodi:type="inkscape:box3dside" />
      <path
         points="795.31832,220.78278 795.31832,384.63602 679.29935,312.31499 679.29935,176.9859 "
         d="m 679.29935,176.9859 116.01897,43.79688 0,163.85324 -116.01897,-72.32103 z"
         inkscape:box3dsidetype="11"
         style="fill:#e9e9ff;fill-rule:evenodd;stroke:none;stroke-width:1px;stroke-linecap:butt;stroke-linejoin:round;stroke-opacity:1"
         id="path6139"
         sodipodi:type="inkscape:box3dside" />
      <path
         points="638.84817,257.97481 795.31832,220.78278 679.29935,176.9859 539.50036,201.71948 "
         d="M 539.50036,201.71948 638.84817,257.97481 795.31832,220.78278 679.29935,176.9859 Z"
         inkscape:box3dsidetype="5"
         style="fill:#4d4d9f;fill-rule:evenodd;stroke:none;stroke-width:1px;stroke-linecap:butt;stroke-linejoin:round;stroke-opacity:1"
         id="path6141"
         sodipodi:type="inkscape:box3dside" />
      <path
         points="638.84817,446.05059 795.31832,384.63602 795.31832,220.78278 638.84817,257.97481 "
         d="m 638.84817,257.97481 0,188.07578 156.47015,-61.41457 0,-163.85324 z"
         inkscape:box3dsidetype="14"
         style="fill:#d7d7ff;fill-rule:evenodd;stroke:none;stroke-width:1px;stroke-linecap:butt;stroke-linejoin:round;stroke-opacity:1"
         id="path6143"
         sodipodi:type="inkscape:box3dside" />
      <path
         points="638.84817,257.97481 638.84817,446.05059 539.50036,353.15713 539.50036,201.71948 "
         d="m 539.50036,201.71948 99.34781,56.25533 0,188.07578 -99.34781,-92.89346 z"
         inkscape:box3dsidetype="3"
         style="fill:#8686bf;fill-rule:evenodd;stroke:none;stroke-width:1px;stroke-linecap:butt;stroke-linejoin:round;stroke-opacity:1"
         id="path6145"
         sodipodi:type="inkscape:box3dside" />
    </g>
    <text
       sodipodi:linespacing="125%"
       id="text6147"
       y="498.78531"
       x="573.57373"
       style="font-style:normal;font-variant:normal;font-weight:normal;font-stretch:normal;font-size:31.25px;line-height:125%;font-family:sans-serif;-inkscape-font-specification:'sans-serif, Normal';text-align:start;letter-spacing:0px;word-spacing:0px;writing-mode:lr-tb;text-anchor:start;fill:#000000;fill-opacity:1;stroke:none;stroke-width:1px;stroke-linecap:butt;stroke-linejoin:miter;stroke-opacity:1"
       xml:space="preserve"><tspan
         y="498.78531"
         x="573.57373"
         id="tspan6149"
         sodipodi:role="line">$p = p_0$</tspan></text>
    <text
       xml:space="preserve"
       style="font-style:normal;font-variant:normal;font-weight:normal;font-stretch:normal;font-size:12.41062832px;line-height:125%;font-family:sans-serif;-inkscape-font-specification:'sans-serif, Normal';text-align:start;letter-spacing:0px;word-spacing:0px;writing-mode:lr-tb;text-anchor:start;fill:#000000;fill-opacity:1;stroke:none;stroke-width:1px;stroke-linecap:butt;stroke-linejoin:miter;stroke-opacity:1"
       x="1820.4066"
       y="124.272"
       id="text6151"
       sodipodi:linespacing="125%"
       transform="scale(0.3971401,2.5180031)"><tspan
         sodipodi:role="line"
         id="tspan7800"
         x="1820.4066"
         y="124.272">$\mathbf{n}^T \, \mathbf{u} = 0$</tspan></text>
    <text
       sodipodi:linespacing="125%"
       id="text6155"
       y="156.49353"
       x="766.94098"
       style="font-style:normal;font-variant:normal;font-weight:normal;font-stretch:normal;font-size:15.73004246px;line-height:125%;font-family:sans-serif;-inkscape-font-specification:'sans-serif, Normal';text-align:start;letter-spacing:0px;word-spacing:0px;writing-mode:lr-tb;text-anchor:start;fill:#000000;fill-opacity:1;stroke:none;stroke-width:1px;stroke-linecap:butt;stroke-linejoin:miter;stroke-opacity:1"
       xml:space="preserve"
       transform="scale(0.50336137,1.9866443)"><tspan
         sodipodi:role="line"
         id="tspan7806"
         x="766.94098"
         y="156.49353">$\mathbf{n}^T(\omega^2 \rho_a \mathbf{u})= a_n$</tspan></text>
    <path
       inkscape:connector-curvature="0"
       id="path6171"
       d="m 686.97202,436.31964 -24.5766,44.95122"
       style="fill:none;fill-rule:evenodd;stroke:#000000;stroke-width:0.75091976px;stroke-linecap:butt;stroke-linejoin:miter;stroke-opacity:1;marker-start:url(#Arrow1Mstart)" />
    <path
       style="fill:none;fill-rule:evenodd;stroke:#000000;stroke-width:0.68294561px;stroke-linecap:butt;stroke-linejoin:miter;stroke-opacity:1;marker-start:url(#marker4609)"
       d="m 560.07121,276.95008 -46.846,13.53554"
       id="path6173"
       inkscape:connector-curvature="0" />
    <text
       sodipodi:linespacing="125%"
       id="text6175"
       y="86.519714"
       x="821.38513"
       style="font-style:normal;font-variant:normal;font-weight:normal;font-stretch:normal;font-size:16.557621px;line-height:125%;font-family:sans-serif;-inkscape-font-specification:'sans-serif, Normal';text-align:start;letter-spacing:0px;word-spacing:0px;writing-mode:lr-tb;text-anchor:start;fill:#000000;fill-opacity:1;stroke:none;stroke-width:1px;stroke-linecap:butt;stroke-linejoin:miter;stroke-opacity:1"
       xml:space="preserve"
       transform="scale(0.5298439,1.8873483)"><tspan
         sodipodi:role="line"
         id="tspan7798"
         x="821.38513"
         y="86.519714">$\mathbf{n}^T(\omega^2 \rho_a \mathbf{u})+i\, k \, p = 2 \, i  \, k \, p_{in}$</tspan></text>
    <path
       style="fill:none;fill-rule:evenodd;stroke:#000000;stroke-width:0.75091976px;stroke-linecap:butt;stroke-linejoin:miter;stroke-opacity:1;marker-start:url(#marker6213)"
       d="m 656.55652,210.34401 -33.2949,-38.93678"
       id="path6183"
       inkscape:connector-curvature="0" />
    <text
       sodipodi:linespacing="125%"
       id="text7802"
       y="336.36252"
       x="878.59875"
       style="font-style:normal;font-variant:normal;font-weight:normal;font-stretch:normal;font-size:19.56793404px;line-height:125%;font-family:sans-serif;-inkscape-font-specification:'sans-serif, Normal';text-align:start;letter-spacing:0px;word-spacing:0px;writing-mode:lr-tb;text-anchor:start;fill:#000000;fill-opacity:1;stroke:none;stroke-width:1px;stroke-linecap:butt;stroke-linejoin:miter;stroke-opacity:1"
       xml:space="preserve"
       transform="scale(0.62617389,1.5970005)"><tspan
         id="tspan7804"
         sodipodi:role="line"
         x="878.59875"
         y="336.36252">$\mathbf{n}^T \, \mathbf{u} = 0$</tspan></text>
    <text
       xml:space="preserve"
       style="font-style:normal;font-variant:normal;font-weight:normal;font-stretch:normal;font-size:31.25px;line-height:125%;font-family:sans-serif;-inkscape-font-specification:'sans-serif, Normal';text-align:start;letter-spacing:0px;word-spacing:0px;writing-mode:lr-tb;text-anchor:start;fill:#000000;fill-opacity:1;stroke:none;stroke-width:1px;stroke-linecap:butt;stroke-linejoin:miter;stroke-opacity:1"
       x="58.588825"
       y="504.85953"
       id="text7808"
       sodipodi:linespacing="125%"><tspan
         sodipodi:role="line"
         id="tspan7824"
         x="58.588825"
         y="504.85953">\textit{Helmholtz equation}</tspan></text>
    <text
       sodipodi:linespacing="125%"
       id="text7812"
       y="520.55713"
       x="610.11816"
       style="font-style:normal;font-variant:normal;font-weight:normal;font-stretch:normal;font-size:25.97275543px;line-height:125%;font-family:sans-serif;-inkscape-font-specification:'sans-serif, Normal';text-align:start;letter-spacing:0px;word-spacing:0px;writing-mode:lr-tb;text-anchor:start;fill:#000000;fill-opacity:1;stroke:none;stroke-width:1px;stroke-linecap:butt;stroke-linejoin:miter;stroke-opacity:1"
       xml:space="preserve"
       transform="scale(0.83112815,1.2031839)"><tspan
         sodipodi:role="line"
         id="tspan7826"
         x="610.11816"
         y="520.55713">\textit{Mixed formulation}</tspan></text>
  </g>
</svg>
